Preceptor’s Primer for Bayesian Data Science - 2 Wrangling
…
Note that slice_sample() selects a random set of rows from the tibble. The argument n, as shown above, will display that many rows. Use the argument prop to return a specific percentage of all the rows in the tibble.

str_detect() determines if a character vector matches a pattern. It returns a logical vector that is the same length as the input. Recall logicals are either TRUE or FALSE.

Which fruit names actually include the letter “c?”

tbl_fruit |> 
  mutate(fruit_in_name = str_detect(fruit, pattern = "c")) 

# A tibble: 80 × 2
   fruit        fruit_in_name
   <chr>        <lgl>        
 1 apple        FALSE        
 2 apricot      TRUE         
 3 avocado      TRUE         
 4 banana       FALSE        
 5 bell pepper  FALSE        
 6 bilberry     FALSE        
 7 blackberry   TRUE         
 8 blackcurrant TRUE         
 9 blood orange FALSE        
10 blueberry    FALSE        
# … with 70 more rows
# ℹ Use `print(n = ...)` to see more rows

str_length() counts characters in your strings. Note this is different from the length() of the character vector itself.

tbl_fruit |> 
  mutate(name_length = str_length(fruit)) 

# A tibble: 80 × 2
   fruit        name_length
   <chr>              <int>
 1 apple                  5
 2 apricot                7
 3 avocado                7
 4 banana                 6
 5 bell pepper           11
 6 bilberry               8
 7 blackberry            10
 8 blackcurrant          12
 9 blood orange          12
10 blueberry              9
# … with 70 more rows
# ℹ Use `print(n = ...)` to see more rows

str_sub() returns a portion of a string. This demonstration will return the first three letters of each fruit with the arguments fruit, 1, and 3.

tbl_fruit |> 
  mutate(first_three_letters = str_sub(fruit, 1, 3)) 

# A tibble: 80 × 2
   fruit        first_three_letters
   <chr>        <chr>              
 1 apple        app                
 2 apricot      apr                
 3 avocado      avo                
 4 banana       ban                
 5 bell pepper  bel                
 6 bilberry     bil                
 7 blackberry   bla                
 8 blackcurrant bla                
 9 blood orange blo                
10 blueberry    blu                
# … with 70 more rows
# ℹ Use `print(n = ...)` to see more rows

str_c() combines a character vector of length to a single string. This is similar to the normal c() function for creating a vector.

tbl_fruit |> 
  mutate(name_with_s = str_c(fruit, "s")) 

# A tibble: 80 × 2
   fruit        name_with_s  
   <chr>        <chr>        
 1 apple        apples       
 2 apricot      apricots     
 3 avocado      avocados     
 4 banana       bananas      
 5 bell pepper  bell peppers 
 6 bilberry     bilberrys    
 7 blackberry   blackberrys  
 8 blackcurrant blackcurrants
 9 blood orange blood oranges
10 blueberry    blueberrys   
# … with 70 more rows
# ℹ Use `print(n = ...)` to see more rows

str_replace() replaces a pattern within a string.

tbl_fruit |> 
  mutate(capital_A = str_replace(fruit, 
                                 pattern = "a", 
                                 replacement = "A")) 

# A tibble: 80 × 2
   fruit        capital_A   
   <chr>        <chr>       
 1 apple        Apple       
 2 apricot      Apricot     
 3 avocado      Avocado     
 4 banana       bAnana      
 5 bell pepper  bell pepper 
 6 bilberry     bilberry    
 7 blackberry   blAckberry  
 8 blackcurrant blAckcurrant
 9 blood orange blood orAnge
10 blueberry    blueberry   
# … with 70 more rows
# ℹ Use `print(n = ...)` to see more rows
…
You can also force the creation of a date-time from a date by supplying a timezone:

ymd(20170131, tz = "UTC")

[1] "2017-01-31 UTC"

2.5.2 From individual components

Instead of a single string, sometimes you’ll have the individual components of the date-time spread across multiple columns. This is what we have in the flights data:

flights |> 
  select(year, month, day, hour, minute)

# A tibble: 336,776 × 5
    year month   day  hour minute
   <int> <int> <int> <dbl>  <dbl>
 1  2013     1     1     5     15
 2  2013     1     1     5     29
 3  2013     1     1     5     40
 4  2013     1     1     5     45
 5  2013     1     1     6      0
 6  2013     1     1     5     58
 7  2013     1     1     6      0
 8  2013     1     1     6      0
 9  2013     1     1     6      0
10  2013     1     1     6      0
# … with 336,766 more rows
# ℹ Use `print(n = ...)` to see more rows

To create a date/time from this sort of input, use make_date() for dates, or make_datetime() for date-times:

flights |> 
  select(year, month, day, hour, minute) |> 
  mutate(departure = make_datetime(year, month, day, hour, minute))

# A tibble: 336,776 × 6
    year month   day  hour minute departure          
   <int> <int> <int> <dbl>  <dbl> <dttm>             
 1  2013     1     1     5     15 2013-01-01 05:15:00
 2  2013     1     1     5     29 2013-01-01 05:29:00
 3  2013     1     1     5     40 2013-01-01 05:40:00
 4  2013     1     1     5     45 2013-01-01 05:45:00
 5  2013     1     1     6      0 2013-01-01 06:00:00
 6  2013     1     1     5     58 2013-01-01 05:58:00
 7  2013     1     1     6      0 2013-01-01 06:00:00
 8  2013     1     1     6      0 2013-01-01 06:00:00
 9  2013     1     1     6      0 2013-01-01 06:00:00
10  2013     1     1     6      0 2013-01-01 06:00:00
# … with 336,766 more rows
# ℹ Use `print(n = ...)` to see more rows
…
Relationships among nycflights tables

In both the flights and airlines data frames, the key variable we want to join/merge/match the rows by has the same name: carrier. Let’s use inner_join() to join the two data frames, where the rows will be matched by the variable carrier

flights |> 
  inner_join(airlines, by = "carrier")

# A tibble: 336,776 × 20
    year month   day dep_time sched_de…¹ dep_d…² arr_t…³ sched…⁴ arr_d…⁵ carrier
   <int> <int> <int>    <int>      <int>   <dbl>   <int>   <int>   <dbl> <chr>  
 1  2013     1     1      517        515       2     830     819      11 UA     
 2  2013     1     1      533        529       4     850     830      20 UA     
 3  2013     1     1      542        540       2     923     850      33 AA     
 4  2013     1     1      544        545      -1    1004    1022     -18 B6     
 5  2013     1     1      554        600      -6     812     837     -25 DL     
 6  2013     1     1      554        558      -4     740     728      12 UA     
 7  2013     1     1      555        600      -5     913     854      19 B6     
 8  2013     1     1      557        600      -3     709     723     -14 EV     
 9  2013     1     1      557        600      -3     838     846      -8 B6     
10  2013     1     1      558        600      -2     753     745       8 AA     
# … with 336,766 more rows, 10 more variables: flight <int>, tailnum <chr>,
#   origin <chr>, dest <chr>, air_time <dbl>, distance <dbl>, hour <dbl>,
#   minute <dbl>, time_hour <dttm>, name <chr>, and abbreviated variable names
#   ¹​sched_dep_time, ²​dep_delay, ³​arr_time, ⁴​sched_arr_time, ⁵​arr_delay
# ℹ Use `print(n = ...)` to see more rows, and `colnames()` to see all variable names

This is our first example of using a join function with a “pipe.” flights is fed as the first argument to inner_join(). That is what the pipe does. The symbol is created by combining a vertical line | and a greater-than symbol ‘>’. Cmd-Shift-M is the shortcut key for inserting a pipe.

The above code is equivalent to:

inner_join(flights, airlines, by = "carrier")

The airports data frame contains the airport codes for each airport:

airports

# A tibble: 1,458 × 8
   faa   name                             lat    lon   alt    tz dst   tzone    
   <chr> <chr>                          <dbl>  <dbl> <dbl> <dbl> <chr> <chr>    
 1 04G   Lansdowne Airport               41.1  -80.6  1044    -5 A     America/…
 2 06A   Moton Field Municipal Airport   32.5  -85.7   264    -6 A     America/…
 3 06C   Schaumburg Regional             42.0  -88.1   801    -6 A     America/…
 4 06N   Randall Airport                 41.4  -74.4   523    -5 A     America/…
 5 09J   Jekyll Island Airport           31.1  -81.4    11    -5 A     America/…
 6 0A9   Elizabethton Municipal Airport  36.4  -82.2  1593    -5 A     America/…
 7 0G6   Williams County Airport         41.5  -84.5   730    -5 A     America/…
 8 0G7   Finger Lakes Regional Airport   42.9  -76.8   492    -5 A     America/…
 9 0P2   Shoestring Aviation Airfield    39.8  -76.6  1000    -5 U     America/…
10 0S9   Jefferson County Intl           48.1 -123.    108    -8 A     America/…
# … with 1,448 more rows
# ℹ Use `print(n = ...)` to see more rows

However, if you look at both the airports and flights data frames, you’ll find that the airport codes are in variables that have different names. In airports the airport code is in faa, whereas in flights the airport codes are in origin and dest.

In order to join these two data frames by airport code, our inner_join() operation will use by = c("dest" = "faa") thereby allowing us to join two data frames where the key variable has a different name.

flights |> 
  inner_join(airports, by = c("dest" = "faa"))

# A tibble: 329,174 × 26
    year month   day dep_time sched_de…¹ dep_d…² arr_t…³ sched…⁴ arr_d…⁵ carrier
   <int> <int> <int>    <int>      <int>   <dbl>   <int>   <int>   <dbl> <chr>  
 1  2013     1     1      517        515       2     830     819      11 UA     
 2  2013     1     1      533        529       4     850     830      20 UA     
 3  2013     1     1      542        540       2     923     850      33 AA     
 4  2013     1     1      554        600      -6     812     837     -25 DL     
 5  2013     1     1      554        558      -4     740     728      12 UA     
 6  2013     1     1      555        600      -5     913     854      19 B6     
 7  2013     1     1      557        600      -3     709     723     -14 EV     
 8  2013     1     1      557        600      -3     838     846      -8 B6     
 9  2013     1     1      558        600      -2     753     745       8 AA     
10  2013     1     1      558        600      -2     849     851      -2 B6     
# … with 329,164 more rows, 16 more variables: flight <int>, tailnum <chr>,
#   origin <chr>, dest <chr>, air_time <dbl>, distance <dbl>, hour <dbl>,
#   minute <dbl>, time_hour <dttm>, name <chr>, lat <dbl>, lon <dbl>,
#   alt <dbl>, tz <dbl>, dst <chr>, tzone <chr>, and abbreviated variable names
#   ¹​sched_dep_time, ²​dep_delay, ³​arr_time, ⁴​sched_arr_time, ⁵​arr_delay
# ℹ Use `print(n = ...)` to see more rows, and `colnames()` to see all variable names

Let’s construct the chain of pipe operators |> that computes the number of flights from NYC to each destination, but also includes information about each destination airport:

flights |>
  group_by(dest) |>
  summarize(num_flights = n(),
            .groups = "drop") |>
  arrange(desc(num_flights)) |>
  inner_join(airports, by = c("dest" = "faa")) |>
  rename(airport_name = name)

# A tibble: 101 × 9
   dest  num_flights airport_name             lat    lon   alt    tz dst   tzone
   <chr>       <int> <chr>                  <dbl>  <dbl> <dbl> <dbl> <chr> <chr>
 1 ORD         17283 Chicago Ohare Intl      42.0  -87.9   668    -6 A     Amer…
 2 ATL         17215 Hartsfield Jackson At…  33.6  -84.4  1026    -5 A     Amer…
 3 LAX         16174 Los Angeles Intl        33.9 -118.    126    -8 A     Amer…
 4 BOS         15508 General Edward Lawren…  42.4  -71.0    19    -5 A     Amer…
 5 MCO         14082 Orlando Intl            28.4  -81.3    96    -5 A     Amer…
 6 CLT         14064 Charlotte Douglas Intl  35.2  -80.9   748    -5 A     Amer…
 7 SFO         13331 San Francisco Intl      37.6 -122.     13    -8 A     Amer…
 8 FLL         12055 Fort Lauderdale Holly…  26.1  -80.2     9    -5 A     Amer…
 9 MIA         11728 Miami Intl              25.8  -80.3     8    -5 A     Amer…
10 DCA          9705 Ronald Reagan Washing…  38.9  -77.0    15    -5 A     Amer…
# … with 91 more rows
# ℹ Use `print(n = ...)` to see more rows
…
