Preceptor’s Primer for Bayesian Data Science - 3 Data
…
aboriginal_lang_data <- collect(aboriginal_lang_db)
aboriginal_lang_data

# A tibble: 67 × 6
   category             language                 mothe…¹ most_…² most_…³ lang_…⁴
   <chr>                <chr>                      <dbl>   <dbl>   <dbl>   <dbl>
 1 Aboriginal languages Aboriginal languages, n…     590     235      30     665
 2 Aboriginal languages Algonquian languages, n…      45      10       0     120
 3 Aboriginal languages Algonquin                   1260     370      40    2480
 4 Aboriginal languages Athabaskan languages, n…      50      10       0      85
 5 Aboriginal languages Atikamekw                   6150    5465    1100    6645
 6 Aboriginal languages Babine (Wetsuwet'en)         110      20      10     210
 7 Aboriginal languages Beaver                       190      50       0     340
 8 Aboriginal languages Blackfoot                   2815    1110      85    5645
 9 Aboriginal languages Carrier                     1025     250      15    2100
10 Aboriginal languages Cayuga                        45      10      10     125
# … with 57 more rows, and abbreviated variable names ¹​mother_tongue,
#   ²​most_at_home, ³​most_at_work, ⁴​lang_known
# ℹ Use `print(n = ...)` to see more rows
…
{html_document}
<html class="no-js" lang="en" dir="ltr">
[1] <head>\n<meta http-equiv="Content-Type" content="text/html; charset=UTF-8 ...
[2] <body>\n\n    <!-- Google Adsense Script -->\n<!--    <script async src=" ...

In this case, we can use Selector Gadget to find the correct CSS selector “table.DataTable-Partial”. We then just proceed as normal, but we need to use html_table() because we’re trying to bring in a table and use it as a tibble.

web_url |>
  read_html() |>
  html_element("table.DataTable-Partial") |>
  html_table()

# A tibble: 225 × 5
   `PAC Name (Affiliate)`                Country of Origin/…¹ Total Dems  Repubs
   <chr>                                 <chr>                <chr> <chr> <chr> 
 1 7-Eleven                              Japan/Seven & I Hol… $20,… $1,0… $19,0…
 2 ABB Group (ABB Group)                 Switzerland/Asea Br… $16,… $6,8… $10,1…
 3 Accenture (Accenture)                 Ireland/Accenture p… $83,… $50,… $33,0…
 4 Air Liquide America                   France/L'Air Liquid… $37,… $15,… $22,0…
 5 Airbus Group                          Netherlands/Airbus … $182… $79,… $103,…
 6 Alkermes Inc                          Ireland/Alkermes Plc $94,… $30,… $64,0…
 7 Allianz of America (Allianz)          Germany/Allianz AG … $71,… $36,… $35,1…
 8 AMG Vanadium                          Netherlands/AMG Adv… $2,0… $0    $2,000
 9 Anheuser-Busch (Anheuser-Busch InBev) Belgium/Anheuser-Bu… $336… $174… $162,…
10 AON Corp (AON plc)                    UK/AON PLC           $80,… $44,… $36,5…
# … with 215 more rows, and abbreviated variable name
#   ¹​`Country of Origin/Parent Company`
# ℹ Use `print(n = ...)` to see more rows
…
We can then use SelectorGadget to find the correct CSS selector. If you can’t easily click on the table, you can also find a selector by reading the HTML code itself. You can do this by highlighting the table, right clicking, and pressing “Inspect”. While you’ll have to dig through the HTML in order to find the correct selector, this is a perfectly viable way to find selectors.

We can then save the table provided into a variable known as raw_data_wiki.

raw_data_wiki <- wiki_url |>
                   read_html() |>
                   html_element("table.wikitable.sortable") |>
                   html_table()
raw_data_wiki

# A tibble: 51 × 4
   State                Population (total inhabitants) (2015) …¹ Murde…² Murde…³
   <chr>                <chr>                                    <chr>     <dbl>
 1 Alabama              4,853,875                                348         7.2
 2 Alaska               737,709                                  59          8  
 3 Arizona              6,817,565                                309         4.5
 4 Arkansas             2,977,853                                181         6.1
 5 California           38,993,940                               1,861       4.8
 6 Colorado             5,448,819                                176         3.2
 7 Connecticut          3,584,730                                117         3.3
 8 Delaware             944,076                                  63          6.7
 9 District of Columbia 670,377                                  162        24.2
10 Florida              20,244,914                               1,041       5.1
# … with 41 more rows, and abbreviated variable names
#   ¹​`Population (total inhabitants) (2015) [1]`,
#   ²​`Murders and Nonnegligent\nManslaughter(total deaths) (2015) [2]`,
#   ³​`Murder and Nonnegligent\nManslaughter Rate(per 100,000 inhabitants) (2015)`
# ℹ Use `print(n = ...)` to see more rows
…
