Preceptor’s Primer for Bayesian Data Science - 10 Five Parameters
…
If, instead, we interpret the question as asking for a prediction for a small number of individuals, then we need to use posterior_predict().

Use posterior_predict() to create draws from the posterior probability distribution for our prediction for these cases. posterior_predict() takes two arguments: the model for which the simulations should be run, and a tibble indicating the covariate values for the individual(s) we want to predict. In this case, we are using the fit_4 model and the tibble is the one we just created above. In other words, the inputs for posterior_predict() and posterior_epred() are identical.

pp <- posterior_predict(object = fit_4, 
                        newdata = newobs) %>%
  as_tibble() %>% 
  mutate_all(as.numeric) %>% 
  rename("Male" = `1`,
         "Female" = `2`)

pp  

# A tibble: 4,000 × 2
    Male Female
   <dbl>  <dbl>
 1  79.7  24.9 
 2  62.1  -1.58
 3  62.7  -7.00
 4  73.1   4.86
 5  47.6  41.5 
 6  58.1  46.0 
 7  56.0  50.0 
 8  74.9  27.6 
 9  48.3  26.8 
10  66.9   7.55
# … with 3,990 more rows
# ℹ Use `print(n = ...)` to see more rows
…
