Preceptor’s Primer for Bayesian Data Science - Functions
…
This flexibility is only possible via the use of list-columns and map_* functions. This workflow is extremely common. We start with an empty tibble, using ID to specify the number of rows. With that skeleton, each step of the pipe adds a new column, working off a column which already exists.

Let’s practice with the nhanes dataset from the primer.data package. How could we add a column to the dataset that included the quantiles of the height variable for each gender?

library(primer.data)

Select the relevant variables, and group by gender. We are grouping because we are curious as to how height is distributed in between gender. We drop any rows with missing data.

nhanes |>
  select(gender, height) |>
  drop_na() |> 
  group_by(gender)

# A tibble: 9,647 × 2
# Groups:   gender [2]
   gender height
   <chr>   <dbl>
 1 Male     165.
 2 Male     165.
 3 Male     165.
 4 Male     105.
 5 Female   168.
 6 Male     133.
 7 Male     131.
 8 Female   167.
 9 Female   167.
10 Female   167.
# … with 9,637 more rows
# ℹ Use `print(n = ...)` to see more rows
…
Men are taller than women throughout the distribution, but the smallest individual (child) in the data, see the 0% quantile, happens to be male.

The second case involves a scenario in which we do not want to “lose” any rows in our tibble. We want a q_height column for all the rows, even if the values included are repetitive. A common scenario is that we want to use q_height to perform a calculation for each individual. To do this, we need a map_* function.

nhanes |>
  select(gender, height) |>
  drop_na() |> 
  group_by(gender) |> 
  summarize(q_height = map(height, ~ quantile(.)),
            .groups = "drop")

# A tibble: 9,647 × 2
   gender q_height 
   <chr>  <list>   
 1 Female <dbl [5]>
 2 Female <dbl [5]>
 3 Female <dbl [5]>
 4 Female <dbl [5]>
 5 Female <dbl [5]>
 6 Female <dbl [5]>
 7 Female <dbl [5]>
 8 Female <dbl [5]>
 9 Female <dbl [5]>
10 Female <dbl [5]>
# … with 9,637 more rows
# ℹ Use `print(n = ...)` to see more rows
…
    slice_sample(n = n) |> 
    pull({{var}})
}

Do the comments in the above code seem weird? Perhaps. But they are good comments! First, there about as many lines of comments as there are lines of code. That is a good rule of thumb. Second, the comments do not simple report what the code is doing. That is redundant! The code itself tells us what the code is doing. The comments, instead, are a discussion of issues related to the code, to things we don’t understand, to topics which we should revisit. They are like a diary. Good programmers keep good diaries.

Prediction Game

Let’s play a prediction game. Consider the kenya tibble from primer.data.

kenya

# A tibble: 1,672 × 9
   block    poll_station treatment poverty dista…¹ pop_d…² mean_…³ reg_b…⁴  rv13
   <chr>    <chr>        <fct>       <dbl>   <dbl>   <dbl>   <dbl>   <dbl> <dbl>
 1 KWALE/42 007/001      control     0.247    22.0 2.96e-3    39.6 0.00358  1116
 2 KWALE/35 007/004      local + …   0.329    25.1 8.88e-4    43.8 0.0742    364
 3 KWALE/40 007/009      local       0.263    27.8 1.84e-3    34.7 0.00691  4632
 4 KWALE/18 007/011      local + …   0.429    27.2 2.70e-4    44.6 0.26      150
 5 KWALE/12 007/017      local + …   0.341    19.3 5.44e-4    39.0 0.0228    833
 6 KWALE/42 007/018      local       0.204    24.0 7.98e-3    37.1 0.00243  1646
 7 KWALE/40 007/019      SMS         0.272    25.1 1.67e-3    39.2 0.00487   616
 8 KWALE/12 007/020      control     0.316    23.8 5.38e-4    36.3 0         775
 9 KWALE/30 007/022      canvass     0.396    20.5 2.16e-4    42.9 0.00575   696
10 KWALE/16 007/023      local + …   0.398    14.5 1.48e-4    39.8 0.0360    722
# … with 1,662 more rows, and abbreviated variable names ¹​distance,
#   ²​pop_density, ³​mean_age, ⁴​reg_byrv13
# ℹ Use `print(n = ...)` to see more rows
…
